CustomerMembership_Id,Customer,Customer_Id,Location_Id,Job_Id,Job_Date,Name,ST_EventID,ST_EventDate,DATES
163203606,Brian Bormann,81009859,81414723,145050748,5/18/2018,Inspection 2 System,179954898,2/28/2019,Out Of Range
173379683,Bill & Ann Quest,173125051,173125053,175058034,2/13/2019,Inspection 4 System,173379691,2/20/2019,Out Of Range
144698945,Alisa Meli,81047615,81467722,144703116,5/5/2018,Inspection 1 System,175985495,2/28/2019,Out Of Range
165762847,Richard & Virginia Laybourne,81041142,81453889,165764131,10/22/2018,Inspection 2 System,175988166,2/11/2019,Out Of Range
155112300,Gregory & Deborah Dowling,81020913,81430776,155115273,6/12/2018,Inspection 1 System,175985822,2/28/2019,Out Of Range
174104908,Mark Tarver,81068742,81489643,174441682,2/12/2019,Inspection 1 System,175989726,2/15/2019,Out Of Range
87504954,Keila Vance,81071913,81499268,144812719,5/18/2018,Inspection 1 System Cont,175989361,2/5/2019,Out Of Range
87500340,Anson Bedford,81007980,81412998,158194813,6/14/2018,Inspection 1 System Cont,175986256,2/1/2019,Out Of Range
163445532,Graziella Grigolini,81028894,81440216,172861422,1/3/2019,Inspection 1 System,175991694,2/28/2018,Out Of Range
141359670,Richard Kislowski,81039207,81451946,164021955,10/18/2018,Inspection 1 System,141359692,3/28/2018,Out Of Range
164373179,Kenneth J  Mighell,81048206,81469406,141258040,3/2/2018,Inspection 1 System,175987688,9/13/2018,Out Of Range
87501995,Cheryl Hoffman,81032999,81444603,143613952,3/7/2018,Inspection 1 System,175991591,9/5/2018,Out Of Range
158098271,Rachel Hahn,158104677,158104680,158104691,6/21/2018,Inspection 1 System,158098282,3/12/2019,Out Of Range
166307698,Denise Aerts- Stritch,166177199,166177201,171987538,11/20/2018,Inspection 2 System,166307715,2/22/2019,Out Of Range
87502521,Michelle Kravitz,81039884,81452559,180728838,5/30/2019,Inspection 2 System Cont,163851340,9/29/2018,Out Of Range
178125820,Tom Andrews,81005251,81409007,144011907,4/12/2018,Inspection 2 System,178125829,2/25/2019,Out Of Range
144235687,James D Coleman,81016045,81425165,144099405,5/3/2018,Inspection 2 System,163926311,9/30/2018,Out Of Range
155108704,Raymond Cook,81016654,81425709,144913312,5/17/2018,Inspection 1 System,175991664,9/1/2018,Out Of Range
162797113,David Barsch,81007401,81411667,165185871,11/6/2018,Inspection 1 System,175985565,2/28/2019,Out Of Range
165826253,Christi Neathery,81051167,81472392,165826295,11/7/2018,Inspection 1 System,175988206,2/15/2019,Out Of Range
87504138,Dan & Anne Rozell,81060885,81482292,165997226,12/20/2018,Inspection 2 System Cont,175987093,2/25/2019,Out Of Range
143539513,Peter Wynne,81077222,81505670,176580644,4/2/2019,Inspection 2 System,143539537,3/6/2018,Out Of Range
87503239,Victoria Montgomery,81049284,81470620,179496469,4/30/2019,Inspection 1 System,179954221,9/1/2018,Out Of Range
144680760,Liberty Tumibay,81071225,81498193,144681313,5/2/2018,Inspection 1 System,175985926,2/28/2019,Out Of Range
160810481,Marion Falk,81023400,81433761,144812853,5/18/2018,Inspection 1 System,175985912,2/28/2019,Out Of Range
87500090,Tim Allen,81004545,81408336,165852036,10/22/2018,Inspection 1 System Cont,100005457,3/5/2018,Out Of Range
162535848,Dawn Carson,81013550,81418591,158932294,7/5/2018,BOGO Inspection 1 System,179454024,9/21/2018,Out Of Range
171947440,Dale Markland,81044783,81465173,162349315,8/2/2018,Inspection 2 System,175989097,2/1/2019,Out Of Range
162778871,Francis R. Colon,81016287,81425381,144307222,5/8/2018,Inspection 2 System,179954710,2/28/2019,Out Of Range
144555794,Philip  O'dwyer,144554174,144554177,144556049,4/27/2018,Inspection 1 System,175985975,2/28/2019,Out Of Range
165952220,Charles Armelin,81005642,81409359,175109177,2/7/2019,Inspection 1 System,175988265,2/16/2019,Out Of Range
87500781,Henrietta Chadwick,81014181,81423457,174496379,2/6/2019,Inspection 1 System Cont,175991941,2/12/2019,Out Of Range
178781344,Katherine & Daniel Parris,144347201,81431089,177172259,4/10/2019,Inspection 2 System,178783985,9/6/2018,Out Of Range
167651137,Valerie Bottoms,81009948,81414805,144894750,5/31/2018,Inspection 1 System,175988545,11/1/2018,Out Of Range
162487604,Ben Revello,81076973,81447261,173571558,12/31/2018,Inspection 2 System,175986652,2/20/2019,Out Of Range
87502023,Randy & Susan Hopkins,81033587,81445754,178408495,4/18/2019,Inspection 2 System,100015218,3/15/2018,Out Of Range
87504378,Irene Shen,81063873,81485111,144811051,5/11/2018,Inspection 2 System Cont,176567511,2/20/2019,Out Of Range
158859631,Linda McBride,81046026,81466294,177176546,3/25/2019,Inspection 2 System,175986887,2/5/2019,Out Of Range
162886675,Charles & Sue Ellen Rich,81059124,81480683,144715857,5/5/2018,Inspection 1 System,178276184,2/1/2019,Out Of Range
143861253,Ronald Johnson,81036656,81448928,172621554,12/6/2018,Inspection 1 System Cont,175989366,2/21/2019,Out Of Range
155130867,Herman Paraison,81053853,81475129,155137264,6/18/2018,Inspection 1 System,175985810,2/28/2019,Out Of Range
165102537,Joey Li,81052058,81473225,173876093,2/1/2019,Inspection 1 System,175988007,2/1/2019,Out Of Range
164474184,Emauel Edet,81022009,81432411,144514326,5/14/2018,Inspection 1 System,175987797,2/17/2019,Out Of Range
87500896,Hope Collins,81016245,81425342,144526897,6/8/2018,Inspection 2 System,179954446,9/15/2018,Out Of Range
143743076,Bruce Bardgett,81007021,81411325,155107603,5/31/2018,Inspection 2 System Cont,175988455,2/23/2019,Out Of Range
172585167,Dustin Bookhout,81009752,81414610,158558166,6/23/2018,Inspection 2 System,178969967,9/4/2018,Out Of Range
87500335,Chris Becht,81007911,81412940,163949959,4/27/2019,Inspection 2 System,179954431,9/10/2018,Out Of Range
144625736,Jay Katz,81029454,81440732,174362782,2/5/2019,Inspection 4 System,175989047,2/28/2019,Out Of Range
143607253,Vince Aguilar,81003887,81407647,177157520,3/15/2019,Inspection 2 System Cont,174571235,9/1/2018,Out Of Range
144858568,Oscar Arriaza,81005792,81409496,143834565,4/4/2018,Inspection 3 System,175987314,2/6/2019,Out Of Range
150014016,Randy Whittmore,81075197,81502837,150013248,5/16/2018,Inspection 1 System,163945556,9/30/2018,Out Of Range
141196577,Gail Schultz,81062687,81484052,158075771,7/3/2018,Inspection 1 System,163843281,9/29/2018,Out Of Range
162936234,David Bauernfeind,81007660,81411901,165313662,4/22/2019,Inspection 1 System,162936244,9/1/2018,Out Of Range
155370214,Kapur Shresphi,81064207,81485405,171894452,1/8/2019,Inspection 1 System Cont,175986156,2/1/2019,Out Of Range
177136954,Frederick Brown,81020762,81430640,177279239,3/1/2019,Inspection 3 System Cont,177136964,2/22/2019,Out Of Range
150187047,Rene Garcia,81026119,81436355,144835809,5/10/2018,Inspection 1 System,163944167,9/30/2018,Out Of Range
166033833,Ramesh Dwarakinath,81021714,81432149,155061340,6/8/2018,Inspection 2 System,175988275,2/1/2019,Out Of Range
143611236,Alejandra Henriquez,81031881,81443596,165911556,10/16/2018,Inspection 2 System Cont,143611250,3/7/2018,Out Of Range
87504311,Algie Seat,81063053,81484379,144882198,5/9/2018,Inspection 1 System,179954763,9/16/2018,Out Of Range
172911171,Mark Hill,81032530,81444179,174636810,1/28/2019,Inspection 2 System,175989449,2/13/2019,Out Of Range
143814036,Dixon Bunger,81011899,81417114,177115426,4/4/2019,Inspection 2 System Cont,175987047,2/19/2019,Out Of Range
143602202,Roy Harris,81030835,81442554,179420785,4/25/2019,Inspection 1 System,143602214,3/7/2018,Out Of Range
144898618,Xiaoyu Zhou,81078068,81506412,144897969,5/16/2018,Inspection 2 System,175987011,2/8/2019,Out Of Range
155346942,Amit Singi,155343846,155343849,155349407,6/8/2018,Inspection 2 System,155346957,3/1/2019,Out Of Range
144908546,David Hoang,81032844,81444466,171289455,12/11/2018,Inspection 2 System,175988766,2/8/2019,Out Of Range
172106229,Frank Babb,81006282,81410642,172148255,1/3/2019,BOGO Inspection 2 System,175989199,2/26/2019,Out Of Range
173411035,Mary A Kleckner,81039264,81451996,177225781,4/15/2019,Inspection 1 System,175989513,2/1/2019,Out Of Range
144414737,Darrin Massey,81045428,81465749,178683502,5/22/2019,Inspection 2 System,179954045,9/1/2018,Out Of Range
178716738,Justin Tull,159085565,159085567,180467091,5/22/2019,Inspection 1 System,178716746,9/11/2018,Out Of Range
144433891,Richard B Darmon. Jr,81018569,81428633,144636928,5/3/2018,Inspection 1 System Cont,144433909,9/17/2018,Out Of Range
150037034,Jeremy Durrett,81073020,144802163,144799555,5/24/2018,Inspection 5 System,164099587,2/7/2019,Out Of Range
158208654,Alan & Shirley Bailey ,81006444,81410790,143658271,3/19/2018,Inspection 2 System,158208532,9/14/2018,Out Of Range
162944501,JJCO Inc- Mechanical Account,81036119,162560711,145060861,6/11/2018,Inspection 2 System,175986641,2/4/2019,Out Of Range
87501966,John Hilyer,81032670,81444310,155637968,6/13/2018,Inspection 3 System Cont,177255050,2/28/2019,Out Of Range
87501201,Drew Donosky,81020694,81430573,144650096,4/30/2018,Inspection 2 System,179954455,9/9/2018,Out Of Range
163038842,Ron Fine,81024084,81434396,144757333,5/23/2018,Inspection 1 System,179954369,2/28/2019,Out Of Range
87501118,Angel & Paige Deleon,81019517,81429492,150116032,5/19/2018,Inspection 2 System Cont,175990762,9/1/2018,Out Of Range
144433082,Samuel Preece,81056763,81478406,162215139,7/25/2018,Inspection 2 System Cont,172182051,11/26/2018,Out Of Range
155662671,Mark Wempe,81074552,81502260,155661048,6/13/2018,Inspection 1 System Cont,179116498,9/5/2018,Out Of Range
87504570,David Spooner,81066417,81487486,158064080,6/28/2018,Inspection 2 System,179954569,9/10/2018,Out Of Range
166112581,Cynthia & George Finley,81024111,81434423,164182157,11/19/2018,Inspection 3 System,175988295,2/1/2019,Out Of Range
158931994,Tom Thuman,81070104,81497087,165803342,12/22/2018,Inspection 2 System,164022299,2/5/2019,Out Of Range
162265752,Chip Clint,81033703,81424867,166422467,11/13/2018,Inspection 1 System,175985701,2/28/2019,Out Of Range
173253585,Holly Miller ,81048599,81469756,174219852,1/17/2019,Inspection 2 System,175989495,2/18/2019,Out Of Range
87502223,Arthur & Carla Johnson,81036411,81448699,144112449,4/16/2018,Inspection 2 System,179954491,9/24/2018,Out Of Range
87500998,Ross Crusemann,81017819,81426894,144812198,5/9/2018,Inspection 1 System Cont,175986563,2/1/2019,Out Of Range
87500342,Bart Bednar,81007988,81413006,164127362,11/3/2018,BOGO Inspection 2 System,177096718,2/13/2019,Out Of Range
175711782,Joanne Paff,175709190,175709193,175710847,2/20/2019,BOGO Inspection 1 System,175711791,2/14/2019,Out Of Range
160844318,Arthur & Carla Johnson,81036411,81448699,177095717,3/19/2019,Inspection 2 System,175986621,2/4/2019,Out Of Range
143490276,H M Magrab,81043935,81464224,143477385,5/7/2018,Inspection 1 System Cont,175990646,9/1/2018,Out Of Range
144324064,Ronald Wagner,81073025,81500758,144164970,4/11/2018,Inspection 1 System,163947968,9/30/2018,Out Of Range
162749705,Adrienne Faulkner,158189704,158189706,158455084,6/21/2018,Inspection 4 System,175987430,2/7/2019,Out Of Range
171861683,Joshua Powell,171733527,171733530,171878490,12/26/2018,Inspection 1 System,175989066,2/16/2019,Out Of Range
144237553,Brenda Saurman,81062162,81483584,177147817,4/5/2019,Inspection 1 System,175987692,2/13/2019,Out Of Range
87502400,Rahul Keshri,81038502,81450748,179874447,5/9/2019,BOGO Inspection 3 System,178624278,2/28/2018,Out Of Range
87500550,Isa Briones,81010843,81415627,150041665,5/21/2018,Inspection 2 System Cont,175990742,2/15/2019,Out Of Range
165373819,Ronnie Alam,81004089,81407901,174573195,2/5/2019,Inspection 2 System,175988073,2/5/2019,Out Of Range
172599875,Jack McJunkin Sr,163416295,163416297,172605609,1/15/2019,Inspection 2 System,175989355,2/5/2019,Out Of Range
175995100,Paschal Strong,81067728,81488713,177078500,3/1/2019,Inspection 3 System Cont,176025298,2/13/2019,Out Of Range
162398784,Keith Hughes,158777392,158777393,177106656,4/4/2019,Inspection 1 System Cont,175986195,2/1/2019,Out Of Range
87500737,Charles Carter,81013609,81418648,178422374,4/20/2019,Inspection 3 System,179954828,9/30/2018,Out Of Range
150224487,Vincent Grillo,81028903,81440225,143723769,3/23/2018,Inspection 1 System,175990285,9/1/2018,Out Of Range
158349718,Andrew Masica,81045363,81465693,158349961,6/22/2018,Inspection 2 System,163972211,9/4/2018,Out Of Range
150198833,Karen Myers,81050772,81472024,177134543,4/5/2019,Inspection 1 System,175985861,9/30/2018,Out Of Range
87502263,Bryan Jones,81036870,81449134,177425759,4/18/2019,Inspection 2 System,179954492,9/7/2018,Out Of Range
160841989,Kimberly Robinson,81038791,81451573,158789699,6/30/2018,Inspection 1 System,163925397,9/30/2018,Out Of Range
165548211,David Wagner,81073038,81500769,144970264,6/13/2018,Inspection 6 System,175988111,2/1/2019,Out Of Range
173980894,Anke Eckardt,173980769,173980773,175410895,2/15/2019,Inspection 1 System,173980902,2/10/2019,Out Of Range
150232199,Charles & Nancy Interdonato,81034948,81447208,143962559,4/6/2018,Inspection 1 System,179954893,2/23/2019,Out Of Range
87501243,Cesar Paz ,81021617,81432058,162779090,7/31/2018,Inspection 2 System Cont,164029690,9/5/2018,Out Of Range
143412112,Barbara Wolff,81076569,81504273,144250923,5/11/2018,Inspection 1 System,179954970,9/26/2018,Out Of Range
150229111,Matthew Roth,164246882,81482198,144544689,5/16/2018,Inspection 1 System,150232583,9/23/2018,Out Of Range
158316329,Max Crum,81017803,81426879,177802879,4/23/2019,Inspection 3 System,179236769,2/6/2019,Out Of Range
144104564,David Brooks,81011038,81416285,144107078,5/22/2018,Inspection 1 System Cont,175992603,9/2/2018,Out Of Range
180404145,Corinne Ito Nishimoto,81035089,81447509,158569011,7/3/2018,BOGO Inspection 2 System,180404153,9/22/2018,Out Of Range
173162114,Bob Kuykendall,172988967,172988969,173184907,12/19/2018,Inspection 2 System,175989488,2/17/2019,Out Of Range
143756804,Ron Helmedag,81031676,81443407,179403182,5/21/2019,Inspection 1 System,179954340,9/16/2018,Out Of Range
144805428,Srinivas Potteti,81056547,81478220,158722898,6/26/2018,BOGO Inspection 2 System,178023753,9/3/2018,Out Of Range
166310931,Jared Mcdowell,81075691,81503489,158830620,6/29/2018,Inspection 1 System,175988393,2/1/2019,Out Of Range
87503672,Norman Payson,81054698,81476278,162223175,7/17/2018,Inspection 1 System,179954236,9/12/2018,Out Of Range
165449583,Daniel Weiss,81074428,81502146,165448589,11/12/2018,Inspection 2 System,175988090,2/8/2019,Out Of Range
143629205,Judith Ennis,81022743,81433071,165545966,10/22/2018,Inspection 1 System Cont,175987593,2/10/2019,Out Of Range
155103394,Rory Houston,81033844,81446005,158916813,7/10/2018,Inspection 1 System,175986109,2/28/2019,Out Of Range
175514756,Luciano Prudore,81057020,81478636,165670573,10/11/2018,Inspection 2 System Cont,175514766,2/11/2019,Out Of Range
155117127,John Metzger,81047976,81468767,144759006,5/7/2018,Inspection 2 System,179630713,9/1/2018,Out Of Range
163256988,Michael Phelps,81055579,81477346,164841258,12/14/2018,Inspection 1 System,175985994,2/28/2019,Out Of Range
87503174,Susanna & Steve Miller,81048534,81469698,176534139,4/1/2019,Inspection 2 System Cont,175987072,2/5/2019,Out Of Range
173820688,Dallas Beck,81078182,81506497,175058826,2/5/2019,Inspection 2 System,175989649,2/1/2019,Out Of Range
144799097,Cindy Tyndall,81071483,81498672,144801914,5/22/2018,Inspection 1 System,179954363,2/28/2019,Out Of Range
143731339,Jean Sutton,81068206,81489141,164001427,10/5/2018,Inspection 2 System Cont,143731353,3/14/2018,Out Of Range
144145780,Travis Hall,81029910,81441717,143953498,4/2/2018,Inspection 1 System Cont,144148742,9/3/2018,Out Of Range
144571389,Jason Cleaves,81015615,81424770,144571138,4/28/2018,Inspection 1 System,163926322,2/28/2019,Out Of Range
144869951,Darling Homes-Mechanical Account ,81018567,144869945,144870690,5/9/2018,BOGO Inspection 2 System,178626370,9/7/2018,Out Of Range
163541440,Jordan Kalev,81037593,81449940,155180321,6/14/2018,Inspection 2 System,175987610,2/10/2019,Out Of Range
87503905,Raj Rajendran,81057563,81479251,159037371,7/7/2018,Inspection 1 System,179954924,9/12/2018,Out Of Range
159009001,Patricia J Andres,81005235,81408991,160118207,7/9/2018,Inspection 1 System,175988892,11/10/2018,Out Of Range
87504667,Stuart Gill,81067782,81488759,165871744,10/22/2018,Inspection 1 System Cont,177255035,2/28/2019,Out Of Range
87501877,Suzanne & Craig Hedden,81031529,81443267,166405164,10/29/2018,Inspection 2 System,100014505,3/18/2018,Out Of Range
162291281,Tom Steinhoff,81066919,81487961,158157298,6/16/2018,Inspection 1 System,175991683,2/18/2019,Out Of Range
177226479,Joseph C Scaduto,81062237,81483655,167890628,11/6/2018,Inspection 2 System,177229746,2/26/2019,Out Of Range
159063804,Mindy Huie,81034322,81446458,173596324,1/10/2019,Inspection 2 System,159063823,3/7/2018,Out Of Range
176544982,Ryan Timken ,176539407,176539410,176543551,2/25/2019,Inspection 1 System,176544993,2/18/2019,Out Of Range
144654283,Kelly Beaver,81007892,81412124,144651579,5/25/2018,Inspection 2 System,175991536,2/1/2019,Out Of Range
150053394,Lennar Homes - Mechanical Account,81041686,81418130,150052222,7/19/2018,BOGO Inspection 1 System,178017701,9/17/2018,Out Of Range
180624408,John Miner,81048688,81469833,156011645,6/21/2018,Inspection 3 System,180624416,9/7/2018,Out Of Range
158807996,Paul Erwin,81022880,81433187,158802562,7/5/2018,Inspection 3 System,164055300,9/6/2018,Out Of Range
158890207,Nathan Adair,81003592,158638823,158889823,6/30/2018,Inspection 2 System Cont,175987215,2/5/2019,Out Of Range
141318098,Matt & Jennifer Kimball,81038794,81451575,162938201,8/3/2018,Inspection 1 System,163845119,9/29/2018,Out Of Range
144870015,Allan K Harkleroad,81030487,81442245,144869560,5/10/2018,Inspection 2 System,177165926,2/25/2019,Out Of Range
144116176,Sharon Comer,81016332,81425418,155126265,5/31/2018,Inspection 1 System Cont,175992607,9/2/2018,Out Of Range
171946118,Phil Armstrong,81005704,81409416,162890490,8/4/2018,Inspection 2 System,175989093,2/1/2019,Out Of Range
87505185,George West  Sr,81074690,81502387,162890519,8/3/2018,Inspection 1 System,175990178,9/18/2018,Out Of Range
144176385,Mohammed Shanableh,81063521,81484786,82443042,3/5/2018,Inspection 4 System,144176400,9/4/2018,Out Of Range
150231204,Marie Contessa- Kislus,81039208,81451947,144097443,4/18/2018,Inspection 1 System,179954891,2/23/2019,Out Of Range
87504656,Cedric Stricklin,81067658,81488656,144812813,5/15/2018,Inspection 2 System Cont,175990919,2/28/2019,Out Of Range
166473188,Thomas P Goransom,81027967,81438054,162264437,7/16/2018,Inspection 1 System,175988502,2/1/2019,Out Of Range
144404264,Karen Mastro,81045481,81465796,176592911,4/4/2019,Inspection 2 System,175986845,2/5/2019,Out Of Range
162253272,Ann V. Dennis,81019733,81429689,173141898,12/17/2018,Inspection 1 System Cont,162253282,3/13/2019,Out Of Range
155423534,Tim Lynch,81043598,81463889,174791716,2/6/2019,Inspection 1 System,179715629,2/4/2019,Out Of Range
162292048,Timothy & Larenia Jackson,81035329,81447722,162290430,7/31/2018,Inspection 2 System,162292074,9/16/2018,Out Of Range
177365013,Marc Schwartz,81062746,81484100,177238357,2/26/2019,Inspection 1 System,177365023,2/26/2019,Out Of Range
87504876,Charles Trahan,81070720,81497642,144196315,4/10/2018,Inspection 2 System Cont,100029330,9/24/2018,Out Of Range
140051671,Ken Mercurio,81047838,81468629,174559849,1/25/2019,Inspection 2 System,140051686,3/7/2018,Out Of Range
155405069,Padgett & Linda Bryant,81011668,81416847,143726742,3/30/2018,Inspection 1 System,175988453,2/1/2019,Out Of Range
87500716,Kyle Carlton,81013269,81418340,174221963,1/17/2019,Inspection 2 System,175991493,2/28/2018,Out Of Range
87501459,Roland Froboese,81025403,81435652,143510346,3/5/2018,Inspection 1 System Cont,175986574,2/1/2019,Out Of Range
87504109,Thomas & Priscilla Roosth,81060526,81481967,144621025,5/23/2018,Inspection 1 System,100025360,9/1/2018,Out Of Range
162411720,Casey Smith,81065365,81486470,162411740,7/21/2018,Inspection 1 System,164116560,9/7/2018,Out Of Range
164572186,Zoe Sexhus,164285421,164285423,164876520,9/28/2018,Inspection 4 System Cont,164576548,9/18/2018,Out Of Range
87501672,Nancy & John Gray,81028427,81439794,170752963,11/9/2018,Inspection 2 System Cont,175987195,2/18/2019,Out Of Range
144376560,Samuel A Steinfath,81066905,81487949,143901109,3/30/2018,Inspection 2 System Cont,175992958,2/19/2019,Out Of Range
144068455,Alma Reposar,81058641,81480236,144103720,4/6/2018,Inspection 1 System,163786517,2/28/2019,Out Of Range
162361835,Kara R Berg,81008437,81413405,145045479,5/31/2018,Inspection 1 System,175992504,2/8/2019,Out Of Range
158537435,Emily Buxton,81012436,158532897,158533680,6/27/2018,Inspection 2 System,175986726,2/4/2019,Out Of Range
165546757,Mona Hill,81032629,81444271,144671620,4/30/2018,Inspection 1 System Cont,175989845,2/1/2019,Out Of Range
172082830,Brian Cohen,81015937,81425070,155358822,6/11/2018,Inspection 2 System,175989156,2/21/2019,Out Of Range
180744417,Nickki Omonira,81053022,81474357,164943258,9/28/2018,BOGO Inspection 2 System,180744425,9/16/2018,Out Of Range
87502362,Heather & Joshua Kay,81037935,81450248,165046635,11/28/2018,BOGO Inspection 1 System,177994327,2/28/2018,Out Of Range
144433082,Samuel Preece,81056763,81478406,163179288,8/9/2018,Inspection 2 System Cont,175992998,2/26/2019,Out Of Range
167416684,Douglas Lacy,81040321,81452946,167413630,11/27/2018,Inspection 2 System,175988540,2/1/2019,Out Of Range
164318787,Doug Suess,81067921,81488885,177116768,3/21/2019,Inspection 1 System,175988451,2/12/2019,Out Of Range
144380600,Connie Manal,81044194,81464622,150021376,6/14/2018,Inspection 2 System Cont,175988993,11/13/2018,Out Of Range
87501315,Angel Espinosa,81022956,81433251,165761557,11/8/2018,Inspection 1 System Cont,175986292,2/20/2019,Out Of Range
87503764,Dan Pearse,81055840,81477571,141324257,3/9/2018,Inspection 2 System Cont,175990875,2/22/2019,Out Of Range
87500271,Ronald Banks,81006885,81411178,143979249,4/4/2018,Inspection 2 System Cont,175990738,9/6/2018,Out Of Range
165062648,Glen Bowie,81010103,81414941,172487319,12/3/2018,Inspection 2 System,175989293,2/1/2019,Out Of Range
87501774,Andrea Hahn,81034463,81441449,143955831,4/5/2018,Inspection 2 System,163974473,9/4/2018,Out Of Range
87503827,Brad Poston,81056500,81478176,150246812,6/16/2018,Inspection 1 System Cont,175986133,2/16/2019,Out Of Range
158361052,Alice Jane Hooker,81033509,81445683,158363083,6/19/2018,Inspection 2 System,163971212,9/4/2018,Out Of Range
144138901,Martha Hennigan,81031863,81443577,162914446,8/18/2018,Inspection 2 System,175991534,9/3/2018,Out Of Range
87500616,Gail & Alvie Burdine,81011956,81417165,176596127,4/17/2019,Inspection 2 System,179954439,9/25/2018,Out Of Range
163258904,Janice Nuss,81052452,81473852,178128999,4/25/2019,Inspection 1 System,163290018,2/1/2019,Out Of Range
173766994,Lynn Holton,81033376,81445559,158732057,6/27/2018,Inspection 1 System,175989641,2/4/2019,Out Of Range
143859434,Curtis Nielson,81051246,81472464,163431883,8/30/2018,Inspection 1 System Cont,163970979,9/4/2018,Out Of Range
171678372,Michael & Diana Rawlins,81058034,81479675,177147672,4/1/2019,Inspection 1 System,175988977,2/12/2019,Out Of Range
144351790,Mark & Clara Perry,81055226,81477034,144862188,5/12/2018,BOGO Inspection 1 System,178703537,9/12/2018,Out Of Range
162883967,Richard Beckwitt,81007966,81412987,155394290,6/11/2018,Inspection 5 System,175987427,2/7/2019,Out Of Range
87503479,Charlie Nye,81052490,81473884,82465778,3/13/2018,Inspection 1 System,179954229,9/7/2018,Out Of Range
144712289,Margaret Schraff,81062325,81483732,144653603,5/3/2018,Inspection 1 System,175988498,11/1/2018,Out Of Range
163325826,Stephen T Kepple,81038437,81450689,144802695,5/22/2018,Inspection 1 System,175987583,2/10/2019,Out Of Range
164843233,Leah Josey,81037320,81449529,158299645,6/26/2018,Inspection 1 System,175987890,2/1/2019,Out Of Range
174447570,Ignatius Jordan,81037229,81449456,174448474,1/22/2019,BOGO Inspection 2 System,175989769,2/19/2019,Out Of Range
144592432,Huyen Tran,81070771,81497703,177376192,3/7/2019,Inspection 1 System Cont,171518010,11/8/2018,Out Of Range
162477909,Elaine & Scott Zirger,81078160,81506490,178841554,4/11/2019,Inspection 1 System,162477919,9/1/2018,Out Of Range
163143407,Rachel Ybarra ,81077425,81505852,144351308,4/20/2018,Inspection 1 System,179954370,9/7/2018,Out Of Range
164355663,Aaron Gary,81026355,81436570,172107883,4/1/2019,Inspection 1 System,164355672,2/13/2019,Out Of Range
87500608,A R Bumgardner,81011881,81417097,177172513,4/9/2019,Inspection 2 System Cont,175990748,2/13/2019,Out Of Range
87500499,Tommy Bourgeois,81010001,81414850,179755069,6/3/2019,Inspection 1 System,179954103,9/8/2018,Out Of Range
162886675,Charles & Sue Ellen Rich,81059124,81480683,144562813,5/1/2018,Inspection 1 System,178284481,9/1/2018,Out Of Range
144981454,Leon Tom,81070440,81497388,144981530,5/19/2018,Inspection 2 System,175989849,2/10/2019,Out Of Range
87503866,Sridhar Pudu,81057092,81478740,166460139,12/4/2018,Inspection 3 System Cont,179954018,2/1/2019,Out Of Range
163177085,Jack Clemens,81015640,81424792,143496605,3/16/2018,Inspection 1 System,175112970,9/1/2018,Out Of Range
144369474,Richard & Linda Ellis,81022463,81432819,143557942,3/6/2018,Inspection 1 System Cont,175992738,9/30/2018,Out Of Range
144911889,Cindy Caloss,81012728,81417848,144906920,5/11/2018,Inspection 1 System,175987453,2/7/2019,Out Of Range
87501904,Walt Henderson,81031788,81443508,171910621,11/19/2018,Inspection 2 System Cont,179954845,2/2/2019,Out Of Range
172527858,Jody & Lawson Doucet,81020825,81430697,172527255,1/5/2019,BOGO Inspection 1 System,175989311,2/3/2019,Out Of Range
144060745,Roger Borer,144060828,144060831,144051514,3/30/2018,Inspection 2 System,175986966,2/5/2019,Out Of Range
171912567,Daniel Nussenzveig,81052451,81473851,171585673,11/12/2018,Inspection 2 System,175989083,2/1/2019,Out Of Range
165066410,Susan Hadley,81029541,81441384,172132969,11/24/2018,Inspection 2 System,175987997,2/1/2019,Out Of Range
172774294,Gabriel Mihdawi,81048218,81469418,173727855,2/25/2019,Inspection 2 System Cont,173730894,2/3/2019,Out Of Range
87501090,Terry Dawson,81019165,81429179,171592817,12/7/2018,Inspection 1 System Cont,175986634,2/11/2019,Out Of Range
87505426,Yousuf Ziauddin,81078083,81506425,172390726,11/30/2018,Inspection 2 System Cont,175990956,2/12/2019,Out Of Range
163714529,Dairo Afolabi,81003832,81407597,172609648,1/3/2019,Inspection 1 System Cont,175989357,2/5/2019,Out Of Range
87502195,Jennifer Snee,81035879,81448227,177306438,4/19/2019,Inspection 1 System,179954172,9/27/2018,Out Of Range
143671144,Trevor Palmeri,81053715,81474996,143652767,3/12/2018,Inspection 3 System,164061946,9/6/2018,Out Of Range
143770256,Bob Compere,81016348,81425432,160123723,7/11/2018,Inspection 2 System,179954607,9/15/2018,Out Of Range
143625262,Cedric Robinson,81059845,81481340,177105420,3/8/2019,Inspection 4 System Cont,143625289,9/8/2018,Out Of Range
144686463,Margaret Schraff,81062325,81483732,144861948,5/11/2018,Inspection 1 System,179954887,2/28/2019,Out Of Range
164471436,Bill Grant,150242259,150242261,162924311,8/3/2018,Inspection 1 System,175990372,9/22/2018,Out Of Range
165678168,Vik Thapar,165670319,165670322,165678190,10/29/2018,Inspection 3 System,175988136,2/10/2019,Out Of Range
87501623,Carlos Gonzalez,81027731,81437852,178022924,4/26/2019,Inspection 1 System Cont,175990472,2/25/2019,Out Of Range
162886521,Larry & Corene De Simone,81019854,81429799,145039570,5/18/2018,Inspection 2 System,175991560,9/1/2018,Out Of Range
173849107,John Lay,81041144,81453891,155393076,6/4/2018,Inspection 1 System,175989657,2/20/2019,Out Of Range
160791552,Margaret Madewell,81044463,81464866,171423464,1/4/2019,Inspection 1 System,178306227,2/9/2019,Out Of Range
165547252,David M Bidwell,81008793,81413754,173580043,1/19/2019,Inspection 2 System,175988098,2/9/2019,Out Of Range
87502782,Gwen Lopez,81042946,81463291,177378401,4/16/2019,Inspection 2 System,175991505,3/31/2018,Out Of Range
177095733,Eugene E Vilfordi,81072597,81499921,144091395,4/11/2018,Inspection 2 System,177095236,9/1/2018,Out Of Range
144858788,George W Pirtle III,81071409,81498361,144859525,5/11/2018,Inspection 2 System,175991190,9/7/2018,Out Of Range
165825574,Paul Williams,81075848,81503639,173052637,12/14/2018,Inspection 2 System,175988204,2/1/2019,Out Of Range
163258238,Dana & Jeff Arnold,81005747,81409456,144823373,5/8/2018,Inspection 2 System,163299293,9/1/2018,Out Of Range
87501383,Lisa Fine,81024081,81434393,165782996,12/3/2018,BOGO Inspection 2 System,178138553,2/28/2018,Out Of Range
171816136,James Buncher,81011890,81417105,166208747,11/9/2018,Inspection 2 System,175989048,2/1/2019,Out Of Range
162632078,Kalpana Bhatia,81008730,81413695,172133628,12/26/2018,Inspection 3 System,162646059,3/16/2018,Out Of Range
160838788,Maurice Korman,81045760,81466055,143485704,3/14/2018,Inspection 1 System,175985973,9/30/2018,Out Of Range
144797341,Chris Sheehy,81063781,81485021,144456541,5/7/2018,Inspection 1 System,179954778,2/28/2019,Out Of Range
141307613,Erica Phan,81067566,81488572,173935963,1/9/2019,Inspection 2 System,141307640,3/16/2018,Out Of Range
174508747,Vamsi Kotla,81039776,81452463,175553342,2/22/2019,Inspection 2 System,174509653,2/22/2019,Out Of Range
87500941,Stephanie & Kevin Corbett,81016838,81425882,177540646,4/22/2019,Inspection 2 System,175991040,9/10/2018,Out Of Range
144164922,Steve Davis,143868625,143868627,177814550,5/8/2019,Inspection 2 System Cont,175992289,2/4/2019,Out Of Range
173734265,Jody Hamrick,81030142,81441928,164247814,10/11/2018,Inspection 1 System,175989624,2/3/2019,Out Of Range
143629301,Alex Jimenez,81036097,81448421,177106706,3/15/2019,Inspection 1 System,179954332,9/8/2018,Out Of Range
150153551,Patsy Crawford,81017477,81426439,141193274,3/19/2018,Inspection 1 System,175985995,9/30/2018,Out Of Range
144165980,Thomas J Guzman,81029432,81440714,144652749,5/18/2018,Inspection 2 System Cont,144166006,3/4/2019,Out Of Range
144372112,Chloe Herzog,81032246,81443928,143488361,3/20/2018,Inspection 1 System Cont,144372122,3/13/2019,Out Of Range
158650226,Keith & Denise Arb,81005621,81409340,144123139,4/6/2018,Inspection 1 System,164181363,9/10/2018,Out Of Range
175229215,Jay Katz,81029454,81440732,144625612,5/25/2018,Inspection 5 System,175989910,2/5/2019,Out Of Range
162277409,Felix Sanchez,81061724,81483185,144713891,5/3/2018,Inspection 2 System,175991215,2/14/2019,Out Of Range
163656955,Ty Park,81054081,81475330,173110064,2/7/2019,Inspection 2 System,175985464,2/23/2019,Out Of Range
175265437,Ann Quantius Rogers,141193748,141193751,175783692,2/19/2019,BOGO Inspection 1 System,175265446,2/5/2019,Out Of Range
87500009,Steve Abels,81003386,81407180,177081353,4/11/2019,Inspection 3 System Cont,100004042,2/7/2019,Out Of Range
141368227,Brad Borgstede,81009874,81414736,177249093,3/19/2019,Inspection 2 System,175986664,2/4/2019,Out Of Range
163171079,Ron Schwartz,81062751,81484106,180728732,5/30/2019,Inspection 3 System,175987315,9/6/2018,Out Of Range
87502392,Tim Kensok,81038401,81450655,144791247,5/7/2018,Inspection 1 System,179954913,9/30/2018,Out Of Range
177251052,Murali Alloju,81004602,81408389,155312579,6/4/2018,Inspection 1 System,177251060,2/26/2019,Out Of Range
143410252,Bob & Pat Walker,81073231,81500960,143918349,4/9/2018,Inspection 3 System,179954899,2/8/2019,Out Of Range
180599644,Rex Frohlich,81025406,81435655,158458057,6/25/2018,Inspection 2 System,180599652,9/25/2018,Out Of Range
164286012,Robert McPhail,81047290,81467431,164280462,11/26/2018,BOGO Inspection 2 System,177955557,2/11/2019,Out Of Range
87504019,Steve Rigely,81059255,81480797,143613163,3/16/2018,Inspection 2 System,179954546,9/1/2018,Out Of Range
163112638,Beverly Ozanne,81053490,81474793,143956525,4/10/2018,Inspection 1 System Cont,175990727,9/6/2018,Out Of Range
144956840,Emily Kithinji,144954604,144954607,144953805,5/10/2018,Inspection 2 System,175986756,2/9/2019,Out Of Range
87502889,Cheryl Marchand,81044419,81464825,164876633,11/29/2018,Inspection 1 System,100019467,3/7/2018,Out Of Range
87501294,Sherrelle Evans,81022669,81433004,162938242,8/3/2018,Inspection 1 System,163949617,9/30/2018,Out Of Range
143549979,James Terwilliger,81069217,81490130,172600784,12/5/2018,Inspection 2 System,143550004,3/6/2018,Out Of Range
144925172,Deanne Lebow-Clark,81015460,81424613,144927331,5/21/2018,Inspection 2 System,175986684,2/9/2019,Out Of Range
87501237,Mike Dunlap,81021408,81431955,155007208,6/8/2018,Inspection 1 System,179954131,9/12/2018,Out Of Range
158134482,Laurie Bradford,81010354,81415161,177146370,3/15/2019,Inspection 2 System,158134888,9/12/2018,Out Of Range
150016668,Charles Pietersz,81055879,81477606,144384926,5/18/2018,Inspection 1 System,150016681,9/16/2018,Out Of Range
166306707,Chirag Patel,81054228,81475845,166308457,12/17/2018,Inspection 3 System,175988391,2/22/2019,Out Of Range
163542246,Mary Soland,81065936,81486977,177104266,4/18/2019,Inspection 1 System,175988414,2/1/2019,Out Of Range
87502965,Eric Maurer,81045755,81466050,143902416,3/26/2018,Inspection 2 System,163980492,9/4/2018,Out Of Range
87504963,Robert Vanderzande,81071962,81499316,144068889,4/4/2018,Inspection 1 System,179954291,9/12/2018,Out Of Range
150009909,Nickki Omonira,81053022,81474357,158351116,7/2/2018,Inspection 2 System,150009936,9/16/2018,Out Of Range
163570869,Marc & Linda Newman,81051587,81472791,171806200,12/6/2018,Inspection 2 System,163570893,3/21/2019,Out Of Range
162284138,Marlena Glenn,162279363,162279365,174377875,1/19/2019,Inspection 1 System,175985997,2/28/2019,Out Of Range
158086873,Maria Cosio,81017033,81426045,144715107,5/1/2018,Inspection 1 System,175985938,9/30/2018,Out Of Range
159087092,Paul Anandam,81004933,81408727,159088473,7/6/2018,Inspection 1 System,175989801,2/1/2019,Out Of Range
165372400,Jeff Cameron,163411944,163411946,174527046,1/24/2019,BOGO Inspection 2 System,175988070,2/5/2019,Out Of Range
163717681,Shannon Eastman,81021873,163714895,174806426,1/31/2019,Inspection 2 System,175985477,2/27/2019,Out Of Range
171309008,Chuck Cotteleer,81017070,81426080,177297914,4/15/2019,Inspection 1 System,175988778,2/2/2019,Out Of Range
87500204,Doris Aue,81006060,81410439,177864810,4/16/2019,Inspection 3 System Cont,175991246,2/14/2019,Out Of Range
87502136,Lori Irwin,81035020,81447444,178338715,4/4/2019,Inspection 3 System,175990401,9/9/2018,Out Of Range
141385994,Wayne Erickson,81022832,81433148,165339077,11/6/2018,Inspection 2 System,141386021,3/23/2018,Out Of Range
87503017,Harold F MacDowell III,81046591,81466801,176593785,3/21/2019,Inspection 1 System Cont,175990555,9/1/2018,Out Of Range
143715739,Mary Gordon,81027992,81438077,177247108,4/5/2019,Inspection 1 System Cont,143715752,9/13/2018,Out Of Range
162809442,Dwellworks,81021719,81432152,144912800,5/14/2018,Inspection 3 System,164055242,2/6/2019,Out Of Range
162960107,Michelle Kravitz,81039884,81452559,180792694,5/30/2019,Inspection 1 System,175990344,9/9/2018,Out Of Range
87504553,Lillian Spangler,81066209,81487288,144032034,4/5/2018,Inspection 3 System Cont,175987307,2/6/2019,Out Of Range
158553206,Claire A Alford,81004291,81408097,158550911,7/2/2018,Inspection 2 System,163976672,2/4/2019,Out Of Range
143990773,Don Hildebrand,81032480,81444135,144871863,5/18/2018,Inspection 1 System,175992444,2/11/2019,Out Of Range
143972897,Eileen Lienhard,81031850,81443564,144902347,5/10/2018,Inspection 2 System,175986787,2/4/2019,Out Of Range
150179272,Gregory S Davis,81018896,81428913,150180101,6/8/2018,Inspection 1 System,175985824,2/28/2019,Out Of Range
87505148,Thomas Webb,81074261,81501882,164024032,11/1/2018,BOGO Inspection 1 System,177615826,2/27/2019,Out Of Range
144189076,Leigh Leger,81041537,81454240,141204031,3/5/2018,Inspection 2 System Cont,175988370,2/1/2019,Out Of Range
150050766,Thomas Vermeer,81072457,81499782,150050295,5/18/2018,Inspection 2 System,175986942,2/5/2019,Out Of Range
87501605,Srinivas Gogula,81027534,81437667,162630247,7/27/2018,Inspection 2 System,179954470,9/22/2018,Out Of Range
87505017,Carl Vigdal,81072575,81499903,172803600,12/17/2018,Inspection 1 System,100030040,3/1/2018,Out Of Range
165237440,Robert McKenny,81047038,81467204,175583615,2/25/2019,Inspection 1 System,165237450,2/3/2019,Out Of Range
171316162,Mr Ed Farow,81023515,81433864,177577637,4/13/2019,Inspection 1 System,175988784,11/3/2018,Out Of Range
87501822,Justin Harnick,81030544,81442292,141330169,3/10/2018,Inspection 1 System,179954159,9/20/2018,Out Of Range
141307569,Deanna Storm,81067541,81488550,173608211,1/31/2019,Inspection 1 System,141307588,3/16/2018,Out Of Range
144455786,James C & Janice L Lewis,81042007,81462433,141372804,4/2/2018,Inspection 1 System Cont,175988760,2/1/2019,Out Of Range
87504476,Michael Smerud,81065092,81486231,158495038,6/28/2018,Inspection 2 System,179954565,9/22/2018,Out Of Range
87504748,Nicole Tavaglione,81068793,81489689,159086678,7/12/2018,Inspection 2 System Cont,175989174,2/24/2019,Out Of Range
158207040,Herbert A  Durham,81021642,81432080,163818465,10/10/2018,Inspection 1 System,175993136,2/28/2018,Out Of Range
143993668,Jo Ann Kruse,81040002,81452666,172537250,1/15/2019,Inspection 2 System,175989339,2/4/2019,Out Of Range
87503496,Stephen Odenheimer,81052683,81474052,177270249,4/23/2019,Inspection - Heating 1 System,141215903,9/13/2018,Out Of Range
150194640,Jerry Abramov,81003453,81407241,150196441,5/30/2018,Inspection 1 System,175985887,2/28/2019,Out Of Range
87500795,John Chapman,81014477,81423710,171680186,11/13/2018,Inspection 2 System Cont,177101151,2/22/2019,Out Of Range
144460905,Robert G Stone Md,81067480,81488490,141368923,3/7/2018,Inspection 1 System Cont,175988348,2/1/2019,Out Of Range
162287328,Chris Salemme,81061527,81482989,150194311,7/16/2018,Inspection 1 System,175985721,2/28/2019,Out Of Range
143435955,Lonnie & Linda Webb,81074245,81501869,150253204,5/25/2018,Inspection 2 System Cont,175992273,2/1/2019,Out Of Range
141306330,Tim & Peggy Flusche,81024525,81434822,171308071,11/5/2018,Inspection 2 System,141306345,3/16/2018,Out Of Range
87504306,Stanley Scott,81062937,81484268,177236468,4/2/2019,Inspection 1 System,179954271,9/10/2018,Out Of Range
150147385,James Abbott,81003361,81407158,179814543,5/29/2019,BOGO Inspection 1 System,177957722,9/21/2018,Out Of Range
166214430,Mark Norris,81052266,81473398,166214443,11/8/2018,Inspection 2 System,175988323,2/19/2019,Out Of Range
87501208,Jackie Doty,81020818,81430690,177954875,4/16/2019,Inspection 2 System,100011185,3/12/2018,Out Of Range
144133603,Adrina Lary,81040903,81453558,144134240,4/13/2018,Inspection 1 System,175985501,2/28/2019,Out Of Range
150228183,William J Morton,81050038,81471274,144725125,5/18/2018,Inspection 1 System,150228198,9/23/2018,Out Of Range
87502653,William & Elyria Lee,81041421,81454135,164792928,10/23/2018,Inspection 2 System,175986988,2/5/2019,Out Of Range
87503822,Linda & Philip Popple,81056397,81478082,144752820,5/8/2018,Inspection 2 System,179954542,9/12/2018,Out Of Range
162885628,Leland White,81075049,81502702,150059267,5/18/2018,Inspection 6 System,164086285,9/7/2018,Out Of Range
155111555,Andrew Mesle,81047927,81468725,155115083,6/8/2018,Inspection 3 System,175987237,2/6/2019,Out Of Range
160826336,Sally Currier,81018094,81427248,144584875,5/21/2018,Inspection 2 System Cont,180272400,9/1/2018,Out Of Range
172253602,Kim Zoller,81078198,81506504,158159114,6/16/2018,Inspection 1 System Cont,175990731,2/27/2019,Out Of Range
87503753,Sheeba Phillip,81055697,81477450,171770186,12/18/2018,BOGO Inspection 3 System,177614834,2/28/2018,Out Of Range
87504224,Allison Santa Maria,81061951,81483392,173456479,1/23/2019,Inspection 3 System,100025969,3/5/2018,Out Of Range
158932128,Allisen Petersen,81055339,81477138,150051747,6/6/2018,Inspection 2 System,175987633,2/10/2019,Out Of Range
158134035,Henry Bowdoin,81010036,81414882,141192891,3/19/2018,Inspection 1 System,175992496,9/1/2018,Out Of Range
144099900,Tracy L Roberts,81059798,81481298,144046720,4/3/2018,Inspection 1 System Cont,173600048,9/1/2018,Out Of Range
155404996,David Pena,81054890,81476448,155404406,6/4/2018,Inspection 1 System,175990298,9/4/2018,Out Of Range
164021797,Terri & Thomas Kaluzny,81037621,81449969,144096908,4/3/2018,Inspection 1 System,175987010,2/5/2019,Out Of Range
87500768,Robert L Cattoi,81013969,81421579,172494034,1/2/2019,Inspection 1 System Cont,143605928,3/7/2018,Out Of Range
175581848,Kara R Berg,81008437,81413405,177079869,3/22/2019,Inspection 1 System,175989958,2/12/2019,Out Of Range
164116624,Katherine Rodriguez,81060130,81481620,143954502,3/26/2018,Inspection 4 System,175987667,9/13/2018,Out Of Range
175995074,Bill Ransom,81057895,81479544,144812702,5/11/2018,Inspection 2 System Cont,176025151,9/12/2018,Out Of Range
140054722,Scott Drake,81021005,81430856,165776386,10/29/2018,Inspection 2 System,140054737,3/7/2018,Out Of Range
166212868,Matthew Ruffner,163926890,81415076,172912508,1/8/2019,Inspection 2 System,178440626,2/1/2019,Out Of Range
143500652,Michael Blazier,81009297,81414208,171735784,11/14/2018,Inspection 2 System,143503109,3/2/2018,Out Of Range
